BuildTypCode	ECBC	ECBC+	Super ECBC	Net Zero	<Blank>
Ho	30%	40%	50%	NA	NA
HC	30%	40%	50%	NA	NA
Ed	40%	50%	60%	NA	NA
Sc	10%	15%	20%	NA	NA
Bu	40%	50%	60%	NA	NA
As	Exempt	Exempt	Exempt	NA	NA
New Code	NA	NA	NA	NA	NA