Application	ACH-Min	ACH-Max
Assembly rooms	4	8
Bakeries	20	30
Banks/building societies	4	8
Bathrooms	6	10
Bedrooms	2	4
Billiard rooms	6	8
Boiler rooms		
Cafes and coffee bars	10	12
Canteens	8	12
Cellars	3	10
Changing rooms	6	10
Churches	1	3
Cinemas and theatres	10	15
Club rooms	12	
Compressor rooms	10	12
Conference rooms	8	12
Corridors	5	10
Dairies	8	12
Dance halls 	12	
Dye works	20	30
Electroplating shops	10	12
Engine rooms/DG Rooms/GG Rooms	As/11.2.2	
Entrance halls	3	5
Rooms/GG Rooms		
Entrance halls 3-5	3	5
Factories and work shops 	8	10
Foundries	15	30
Garages	6	8
Glass houses	25	60
Gymnasium	6	
Hair dressing saloon	10	15
Hospitals sterilising	15	25
Hospital wards	6	8
Hospital domestic	15	20
Laboratories 	6	15
Launderettes	10	15
Laundries	10	30
Lavatories 	6	15
Lecture theatres	5	8
Libraries	3	5
Lift cars	20	
Living rooms	3	6
Mushroom houses 	6	10
Offices 	6	10
Paint shops (not cellulose)	10	20
Photo and X-ray dark room	10	15
Public house bars	12	
Recording control rooms	15	25
Recording studios	10	12
Restaurants	8	12
Schoolrooms	5	7
Shops and supermarkets	8	15
Shower baths	15	20
Stores and warehouses	3	6
STP rooms	30	
Squash courts	4	
Swimming baths	10	15
Toilets	6	10
Underground vehicle parking	6	
Utility rooms	15	30
Welding shops	15	30